k-means explanation
…
Step 1. Calculate squared Euclidean distance between each observations and each clusters

Firs of all we need to choose a metric for measuring distance between observations and clusters centers. Let it be Euclidean distance or rather squared Euclidean distance.

Eu_dist2 = (xi - xc)2 + (yi - yc)2

Next, it needs to determine the distance from each point to each cluster. Since we have 12 points and 3 clusters, we get 36 distances. It was the first stumbling-block.

df_dist <- bind_cols(map_dfr(df_xy, rep, n_clust),
                     map_dfr(df_cl, rep, each = n_xy)) %>% 
  mutate(Eu_dist = sqrt((.$x - .$Cx)^2 + (.$y - .$Cy)^2))
df_dist

## # A tibble: 36 x 6
##        x     y Cluster    Cx    Cy Eu_dist
##    <dbl> <dbl> <ord>   <dbl> <dbl>   <dbl>
##  1  0.75  0.6  1           1     2   1.42 
##  2  1.1   1    1           1     2   1.00 
##  3  1.25  1.25 1           1     2   0.791
##  4  0.55  1    1           1     2   1.10 
##  5  2.15  1.9  1           1     2   1.15 
##  6  2.17  1.8  1           1     2   1.19 
##  7  1.85  1.85 1           1     2   0.863
##  8  1.86  2.5  1           1     2   0.995
##  9  2.87  1    1           1     2   2.12 
## 10  2.75  0.85 1           1     2   2.09 
## # ... with 26 more rows
…
